%YAML 1.1
%TAG !u! tag:unity3d.com,2011:
--- !u!21 &2100000
Material:
  serializedVersion: 6
  m_ObjectHideFlags: 0
  m_CorrespondingSourceObject: {fileID: 0}
  m_PrefabInstance: {fileID: 0}
  m_PrefabAsset: {fileID: 0}
  m_Name: Shockwave_MAT
  m_Shader: {fileID: -6465566751694194690, guid: 4773baa82ab0ba8468b7325f37286ebd,
    type: 3}
  m_ShaderKeywords: 
  m_LightmapFlags: 4
  m_EnableInstancingVariants: 0
  m_DoubleSidedGI: 0
  m_CustomRenderQueue: -1
  stringTagMap: {}
  disabledShaderPasses: []
  m_SavedProperties:
    serializedVersion: 3
    m_TexEnvs:
    - Texture2D_6C6EDA6:
        m_Texture: {fileID: 2800000, guid: 310d509dcf1be9245aa2018abfd9f60f, type: 3}
        m_Scale: {x: 1, y: 1}
        m_Offset: {x: 0, y: 0}
    m_Floats:
    - Vector1_28BFC41C: 0.2
    m_Colors:
    - Color_FA048ECB: {r: 1.9999998, g: 1.9999998, b: 1.9999998, a: 0}
