%YAML 1.1
%TAG !u! tag:unity3d.com,2011:
--- !u!21 &2100000
Material:
  serializedVersion: 6
  m_ObjectHideFlags: 0
  m_CorrespondingSourceObject: {fileID: 0}
  m_PrefabInstance: {fileID: 0}
  m_PrefabAsset: {fileID: 0}
  m_Name: Trail_MAT
  m_Shader: {fileID: -6465566751694194690, guid: b24c925683d302b43aaa13aebc78a5ad,
    type: 3}
  m_ShaderKeywords: 
  m_LightmapFlags: 4
  m_EnableInstancingVariants: 0
  m_DoubleSidedGI: 0
  m_CustomRenderQueue: -1
  stringTagMap: {}
  disabledShaderPasses: []
  m_SavedProperties:
    serializedVersion: 3
    m_TexEnvs:
    - Texture2D_96CD253B:
        m_Texture: {fileID: 2800000, guid: ceb1f5ebc3ee40c41b8f033962cb1d36, type: 3}
        m_Scale: {x: 1, y: 1}
        m_Offset: {x: 0, y: 0}
    - Texture2D_E9C92C83:
        m_Texture: {fileID: 2800000, guid: ceb1f5ebc3ee40c41b8f033962cb1d36, type: 3}
        m_Scale: {x: 1, y: 1}
        m_Offset: {x: 0, y: 0}
    - _BaseMap:
        m_Texture: {fileID: 0}
        m_Scale: {x: 1, y: 1}
        m_Offset: {x: 0, y: 0}
    - _MainTex:
        m_Texture: {fileID: 0}
        m_Scale: {x: 1, y: 1}
        m_Offset: {x: 0, y: 0}
    - _Texture2DAsset_41C483B6_Out:
        m_Texture: {fileID: 2800000, guid: ca82422f2ca30194a97cbec3fb77dd14, type: 3}
        m_Scale: {x: 1, y: 1}
        m_Offset: {x: 0, y: 0}
    m_Floats:
    - _AlphaClip: 0
    - _Blend: 0
    - _Cull: 2
    - _Cutoff: 0.5
    - _DstBlend: 0
    - _QueueOffset: 0
    - _SampleGI: 0
    - _SrcBlend: 1
    - _Surface: 0
    - _ZWrite: 1
    m_Colors:
    - Color_3770EA58: {r: 1, g: 1, b: 1, a: 1}
    - Color_78E98561: {r: 1.4980392, g: 1.4980392, b: 1.4980392, a: 0}
    - Color_DB16EC05: {r: 0.09255962, g: 3.032953, b: 3.9245284, a: 0}
    - _BaseColor: {r: 1, g: 1, b: 1, a: 1}
    - _Color: {r: 0.5, g: 0.5, b: 0.5, a: 1}
