%YAML 1.1
%TAG !u! tag:unity3d.com,2011:
--- !u!1 &4683145189238639207
GameObject:
  m_ObjectHideFlags: 0
  m_CorrespondingSourceObject: {fileID: 0}
  m_PrefabInstance: {fileID: 0}
  m_PrefabAsset: {fileID: 0}
  serializedVersion: 6
  m_Component:
  - component: {fileID: 3251504201634250731}
  - component: {fileID: 3618435505413030648}
  m_Layer: 0
  m_Name: WalkToCard
  m_TagString: Untagged
  m_Icon: {fileID: 0}
  m_NavMeshLayer: 0
  m_StaticEditorFlags: 0
  m_IsActive: 1
--- !u!4 &3251504201634250731
Transform:
  m_ObjectHideFlags: 0
  m_CorrespondingSourceObject: {fileID: 0}
  m_PrefabInstance: {fileID: 0}
  m_PrefabAsset: {fileID: 0}
  m_GameObject: {fileID: 4683145189238639207}
  m_LocalRotation: {x: 0, y: 0, z: 0, w: 1}
  m_LocalPosition: {x: 0, y: 0, z: 0}
  m_LocalScale: {x: 1, y: 1, z: 1}
  m_Children: []
  m_Father: {fileID: 0}
  m_RootOrder: 0
  m_LocalEulerAnglesHint: {x: 0, y: 0, z: 0}
--- !u!114 &3618435505413030648
MonoBehaviour:
  m_ObjectHideFlags: 0
  m_CorrespondingSourceObject: {fileID: 0}
  m_PrefabInstance: {fileID: 0}
  m_PrefabAsset: {fileID: 0}
  m_GameObject: {fileID: 4683145189238639207}
  m_Enabled: 1
  m_EditorHideFlags: 0
  m_Script: {fileID: 11500000, guid: 435daf94e229c024a92cfcf8bc8a9265, type: 3}
  m_Name: 
  m_EditorClassIdentifier: 
  hudCardPrefab: {fileID: 3984010573253647103, guid: cc582ed333e659f4a89cd7ba9db24fd3,
    type: 3}
  walkToMarkerPrefab: {fileID: 8117213254968546258, guid: 99fcd1e3bdfa56c429aa57e7c3a32fcd,
    type: 3}
